<?xml version="1.0" encoding="UTF-8"?>
<svg width="147px" height="26px" viewBox="0 0 147 26" version="1.1" xmlns="http://www.w3.org/2000/svg" xmlns:xlink="http://www.w3.org/1999/xlink">
    <!-- Generator: Sketch 64 (93537) - https://sketch.com -->
    <title>logo-02</title>
    <desc>Created with Sketch.</desc>
    <g id="Powerpoint" stroke="none" stroke-width="1" fill="none" fill-rule="evenodd">
        <g id="logo-02" fill="#FFFFFE">
            <polyline id="Fill-4" points="0.519 25.393 0.519 0.639 14.025 0.639 14.025 4.445 5.694 4.445 5.694 10.549 13.374 10.549 13.374 14.354 5.694 14.354 5.694 21.586 14.3 21.586 14.3 25.393 0.519 25.393"></polyline>
            <path d="M24.724,25.803 C18.312,25.803 17.113,22.031 17.388,17.746 L22.564,17.746 C22.564,20.111 22.666,22.1 25.513,22.1 C27.261,22.1 28.117,20.969 28.117,19.289 C28.117,14.834 17.696,14.559 17.696,7.187 C17.696,3.315 19.547,0.229 25.856,0.229 C30.895,0.229 33.397,2.492 33.055,7.668 L28.016,7.668 C28.016,5.816 27.707,3.93 25.615,3.93 C23.936,3.93 22.941,4.855 22.941,6.57 C22.941,11.268 33.363,10.855 33.363,18.639 C33.363,25.049 28.666,25.803 24.724,25.803" id="Fill-5"></path>
            <polyline id="Fill-6" points="48.93 0.639 54.62 0.639 47.695 11.748 54.62 25.393 48.793 25.393 42.861 12.707 42.793 12.707 42.793 25.393 37.617 25.393 37.617 0.639 42.793 0.639 42.793 11.232 42.861 11.232 48.93 0.639"></polyline>
            <polygon id="Fill-7" points="57.846 25.393 63.022 25.393 63.022 0.639 57.846 0.639"></polygon>
            <path d="M73.515,21.586 L76.017,21.586 C79.171,21.586 79.788,19.221 79.788,13.016 C79.788,8.457 79.788,4.445 76.188,4.445 L73.515,4.445 L73.515,21.586 Z M68.338,0.639 L76.977,0.639 C83.765,0.639 85.032,5.166 85.032,12.879 C85.032,16.684 85.616,25.393 76.771,25.393 L68.338,25.393 L68.338,0.639 L68.338,0.639 Z" id="Fill-8"></path>
            <path d="M100.429,13.016 C100.429,6.674 100.051,3.93 97.137,3.93 C94.224,3.93 93.846,6.674 93.846,13.016 C93.846,19.357 94.224,22.1 97.137,22.1 C100.051,22.1 100.429,19.357 100.429,13.016 Z M88.602,13.016 C88.602,6.467 88.602,0.229 97.137,0.229 C105.673,0.229 105.673,6.467 105.673,13.016 C105.673,19.496 105.673,25.803 97.137,25.803 C88.602,25.803 88.602,19.496 88.602,13.016 L88.602,13.016 Z" id="Fill-9"></path>
            <path d="M121.377,13.016 C121.377,6.674 120.999,3.93 118.087,3.93 C115.172,3.93 114.795,6.674 114.795,13.016 C114.795,19.357 115.172,22.1 118.087,22.1 C120.999,22.1 121.377,19.357 121.377,13.016 Z M109.55,13.016 C109.55,6.467 109.55,0.229 118.087,0.229 C126.623,0.229 126.623,6.467 126.623,13.016 C126.623,19.496 126.623,25.803 118.087,25.803 C109.55,25.803 109.55,19.496 109.55,13.016 L109.55,13.016 Z" id="Fill-10"></path>
            <path d="M137.458,25.803 C131.048,25.803 129.848,22.031 130.121,17.746 L135.299,17.746 C135.299,20.111 135.4,22.1 138.247,22.1 C139.994,22.1 140.851,20.969 140.851,19.289 C140.851,14.834 130.431,14.559 130.431,7.187 C130.431,3.315 132.282,0.229 138.589,0.229 C143.628,0.229 146.131,2.492 145.789,7.668 L140.75,7.668 C140.75,5.816 140.44,3.93 138.349,3.93 C136.67,3.93 135.675,4.855 135.675,6.57 C135.675,11.268 146.097,10.855 146.097,18.639 C146.097,25.049 141.401,25.803 137.458,25.803" id="Fill-11"></path>
        </g>
    </g>
</svg>